{"data":{"meta":{"size":10,"page":1,"total_pages":6,"total_items":60},"data":[{"id":1,"parent_id":null,"slug":"accusantium-cupiditate-et","name":"accusantium cupiditate et","thumbnail":"/private/var/folders/m9/4m5nkcx50dv2l2v1btv0k7r00000gn/T/phppkG2GR","meta":null,"status":0,"excerpt":"Vel qui placeat non voluptatum voluptate quod tempora velit optio nihil omnis dolor.","description":"Temporibus unde et qui vero est tenetur sit. Est rerum aut eaque eveniet. Rerum minus eum omnis laborum dolorem aut voluptatem. Cupiditate ad provident animi iste quaerat.","sku":"SKU-748vy","barcode":"5921167545560","price":null,"tax_id":6,"type_id":4,"created_at":"2025-04-06T16:59:43.000000Z","updated_at":"2025-04-06T16:59:43.000000Z","deleted_at":null,"created_by":2,"updated_by":2,"deleted_by":null},{"id":2,"parent_id":95,"slug":"voluptatem-consequatur-et","name":"voluptatem consequatur et","thumbnail":"/private/var/folders/m9/4m5nkcx50dv2l2v1btv0k7r00000gn/T/phpFDEtTF","meta":null,"status":0,"excerpt":"In sed velit nam quia nihil magni nam non consectetur.","description":"Similique quos provident consequuntur voluptas. Quis maiores reprehenderit enim similique voluptas omnis.","sku":"SKU-413gj","barcode":"3786452916065","price":null,"tax_id":1,"type_id":3,"created_at":"2025-04-06T16:59:43.000000Z","updated_at":"2025-04-06T16:59:43.000000Z","deleted_at":null,"created_by":2,"updated_by":2,"deleted_by":null},{"id":3,"parent_id":55,"slug":"ut-eum-molestiae","name":"ut eum molestiae","thumbnail":"/private/var/folders/m9/4m5nkcx50dv2l2v1btv0k7r00000gn/T/phpNsggA0","meta":null,"status":1,"excerpt":"Libero nisi occaecati architecto mollitia dolores sequi.","description":"Iste molestias aut architecto voluptatem quod et expedita recusandae. Corrupti aut deserunt aut sapiente fugit. Quidem quibusdam officiis maxime voluptatem distinctio.","sku":"SKU-013sa","barcode":"7782707994884","price":null,"tax_id":3,"type_id":1,"created_at":"2025-04-06T16:59:43.000000Z","updated_at":"2025-04-06T16:59:43.000000Z","deleted_at":null,"created_by":2,"updated_by":2,"deleted_by":null},{"id":4,"parent_id":null,"slug":"autem-perspiciatis-in","name":"autem perspiciatis in","thumbnail":"/private/var/folders/m9/4m5nkcx50dv2l2v1btv0k7r00000gn/T/phpTLlIzK","meta":null,"status":1,"excerpt":"Dolorum sit perspiciatis enim reprehenderit culpa itaque corrupti ducimus rerum libero.","description":"Nisi sunt et provident adipisci soluta. Vel nesciunt exercitationem ad. Non et magni voluptatibus eaque maiores doloremque. Recusandae et quae nobis et rerum placeat. Nulla hic voluptatem omnis vel velit ut.","sku":"SKU-959vc","barcode":"0642062577795","price":null,"tax_id":4,"type_id":2,"created_at":"2025-04-06T16:59:43.000000Z","updated_at":"2025-04-06T16:59:43.000000Z","deleted_at":null,"created_by":2,"updated_by":2,"deleted_by":null},{"id":5,"parent_id":null,"slug":"asperiores-qui-consectetur","name":"asperiores qui consectetur","thumbnail":"/private/var/folders/m9/4m5nkcx50dv2l2v1btv0k7r00000gn/T/phpbbpgcP","meta":null,"status":0,"excerpt":"Eum consequatur reiciendis est illum maiores voluptatem.","description":"Consequatur quis aspernatur non rem. Tempore fugiat eaque id officiis non non. Quo maxime quia dignissimos beatae in. Rerum beatae consequatur natus maxime. Ut a quasi error porro asperiores.","sku":"SKU-979mo","barcode":"2824506718119","price":null,"tax_id":2,"type_id":2,"created_at":"2025-04-06T16:59:43.000000Z","updated_at":"2025-04-06T16:59:43.000000Z","deleted_at":null,"created_by":2,"updated_by":2,"deleted_by":null},{"id":6,"parent_id":76,"slug":"sunt-architecto-quia","name":"sunt architecto quia","thumbnail":"/private/var/folders/m9/4m5nkcx50dv2l2v1btv0k7r00000gn/T/php94R6xX","meta":null,"status":1,"excerpt":"Voluptatem maiores optio neque fugiat sit necessitatibus quia.","description":"Asperiores similique vero maiores nam veniam doloribus. Odio et dicta distinctio quidem facilis eaque voluptatibus sint. Ut aut laudantium aut sit.","sku":"SKU-057xw","barcode":"0920867148748","price":null,"tax_id":1,"type_id":4,"created_at":"2025-04-06T16:59:43.000000Z","updated_at":"2025-04-06T16:59:43.000000Z","deleted_at":null,"created_by":2,"updated_by":2,"deleted_by":null},{"id":7,"parent_id":29,"slug":"ab-autem-vel","name":"ab autem vel","thumbnail":"/private/var/folders/m9/4m5nkcx50dv2l2v1btv0k7r00000gn/T/phpi8G57Y","meta":null,"status":0,"excerpt":"Officiis eaque nulla molestiae neque est eveniet quae saepe dolor.","description":"Ea ratione provident harum aut ducimus cumque consectetur rerum. Molestiae ut aut et nihil ut. Eum aperiam sapiente harum est. Dolores doloribus omnis quae reprehenderit aperiam harum.","sku":"SKU-099sg","barcode":"6738339571598","price":null,"tax_id":1,"type_id":4,"created_at":"2025-04-06T16:59:43.000000Z","updated_at":"2025-04-06T16:59:43.000000Z","deleted_at":null,"created_by":2,"updated_by":2,"deleted_by":null},{"id":8,"parent_id":null,"slug":"voluptatem-natus-vel","name":"voluptatem natus vel","thumbnail":"/private/var/folders/m9/4m5nkcx50dv2l2v1btv0k7r00000gn/T/phpUc6iMm","meta":null,"status":1,"excerpt":"Commodi hic ducimus quo iure consequatur consequatur sed et blanditiis vitae vero.","description":"Et voluptas saepe sint magnam. Voluptatum dignissimos velit quo quod. Eos corrupti doloremque ab vel fugiat.","sku":"SKU-393ia","barcode":"9829706265442","price":null,"tax_id":1,"type_id":1,"created_at":"2025-04-06T16:59:43.000000Z","updated_at":"2025-04-06T16:59:43.000000Z","deleted_at":null,"created_by":2,"updated_by":2,"deleted_by":null},{"id":9,"parent_id":98,"slug":"sit-nihil-error","name":"sit nihil error","thumbnail":"/private/var/folders/m9/4m5nkcx50dv2l2v1btv0k7r00000gn/T/phpDwr0ob","meta":null,"status":1,"excerpt":"Dolor laboriosam mollitia debitis totam incidunt consequatur et explicabo.","description":"Vel aut aperiam praesentium voluptas facilis id. Quaerat et illo rerum et molestias iste. Cupiditate facilis et sed quos est fugit. Nesciunt nihil exercitationem ab sed porro voluptatem accusantium.","sku":"SKU-603zy","barcode":"0886254166804","price":null,"tax_id":5,"type_id":3,"created_at":"2025-04-06T16:59:43.000000Z","updated_at":"2025-04-06T16:59:43.000000Z","deleted_at":null,"created_by":2,"updated_by":2,"deleted_by":null},{"id":10,"parent_id":35,"slug":"consequatur-expedita-dicta","name":"consequatur expedita dicta","thumbnail":"/private/var/folders/m9/4m5nkcx50dv2l2v1btv0k7r00000gn/T/phpRFSsuv","meta":null,"status":1,"excerpt":"Officia assumenda laborum consequuntur alias dolorem repellat esse.","description":"Sed nam tenetur nisi nesciunt ut voluptas eius. In quis et culpa vel beatae dignissimos tempora sit. Consequuntur qui corrupti eius repellendus. Dolor aliquid aliquid amet assumenda earum.","sku":"SKU-435pd","barcode":"6040806218821","price":null,"tax_id":10,"type_id":1,"created_at":"2025-04-06T16:59:43.000000Z","updated_at":"2025-04-06T16:59:43.000000Z","deleted_at":null,"created_by":2,"updated_by":2,"deleted_by":null}]},"status":200,"message":"Fetched All"}
